<?xml version="1.0" encoding="UTF-8" ?>
<testsuite tests="1" failures="0" name="org.aiotml.compliers.tests.TestSaveThingFile" time="0.166" errors="0" skipped="0">
  <properties>
    <property name="java.runtime.name" value="Java(TM) SE Runtime Environment"/>
    <property name="sun.boot.library.path" value="D:\Depend\Java\jdk\jre\bin"/>
    <property name="java.vm.version" value="25.271-b09"/>
    <property name="java.vm.vendor" value="Oracle Corporation"/>
    <property name="maven.multiModuleProjectDirectory" value="D:\AIoT\AIoTML\AIoTML"/>
    <property name="java.vendor.url" value="http://java.oracle.com/"/>
    <property name="path.separator" value=";"/>
    <property name="guice.disable.misplaced.annotation.check" value="true"/>
    <property name="java.vm.name" value="Java HotSpot(TM) 64-Bit Server VM"/>
    <property name="file.encoding.pkg" value="sun.io"/>
    <property name="user.script" value=""/>
    <property name="user.country" value="CN"/>
    <property name="sun.java.launcher" value="SUN_STANDARD"/>
    <property name="sun.os.patch.level" value=""/>
    <property name="java.vm.specification.name" value="Java Virtual Machine Specification"/>
    <property name="user.dir" value="D:\AIoT\AIoTML\AIoTML"/>
    <property name="java.runtime.version" value="1.8.0_271-b09"/>
    <property name="java.awt.graphicsenv" value="sun.awt.Win32GraphicsEnvironment"/>
    <property name="java.endorsed.dirs" value="D:\Depend\Java\jdk\jre\lib\endorsed"/>
    <property name="os.arch" value="amd64"/>
    <property name="java.io.tmpdir" value="C:\Users\ADMINI~1\AppData\Local\Temp\"/>
    <property name="line.separator" value="
"/>
    <property name="java.vm.specification.vendor" value="Oracle Corporation"/>
    <property name="user.variant" value=""/>
    <property name="p2.userAgent" value="tycho/1.3.0"/>
    <property name="os.name" value="Windows 10"/>
    <property name="classworlds.conf" value="D:\AIoT\workspace\.metadata\.plugins\org.eclipse.m2e.launching\launches\m2conf341688057758416154.tmp"/>
    <property name="sun.jnu.encoding" value="GBK"/>
    <property name="java.library.path" value="D:\Depend\Java\jdk\bin;C:\WINDOWS\Sun\Java\bin;C:\WINDOWS\system32;C:\WINDOWS;D:/Depend/Java/jdk/bin/../jre/bin/server;D:/Depend/Java/jdk/bin/../jre/bin;D:/Depend/Java/jdk/bin/../jre/lib/amd64;D:\Software\VMware\VMware Workstation\bin\;C:\WINDOWS\system32;C:\WINDOWS;C:\WINDOWS\System32\Wbem;C:\WINDOWS\System32\WindowsPowerShell\v1.0\;C:\WINDOWS\System32\OpenSSH\;D:\Depend\Java\jdk\bin;D:\Depend\Java\jdk\jre\bin;D:\Depend\Python37;D:\Depend\Python37\Scripts;D:\Depend\mingw-w64\x86_64-8.1.0-win32-seh-rt_v6-rev0\mingw64\bin;D:\Depend\nodejs\;D:\Software\MATLAB\R2014b\runtime\win64;D:\Software\MATLAB\R2014b\bin;D:\Software\MATLAB\R2014b\polyspace\bin;D:\Tools\cygwin64\bin;D:\Tools\Git\cmd;C:\Program Files (x86)\NVIDIA Corporation\PhysX\Common;C:\Program Files\NVIDIA Corporation\NVIDIA NvDLISR;D:\Tools\X\Xshell\;D:\Tools\X\Xftp\;D:\Tools\X\Xmanager\;D:\Depend\Go\bin;D:\Software\Anaconda3;D:\Software\Anaconda3\Library\mingw-w64\bin;D:\Software\Anaconda3\Library\usr\bin;D:\Software\Anaconda3\Library\bin;D:\Software\Anaconda3\Scripts;C:\Users\Administrator\AppData\Local\Microsoft\WindowsApps;D:\Software\Microsoft VS Code\bin;C:\Users\Administrator\AppData\Roaming\npm;D:\Software\JetBrains\PhpStorm 2019.3.4\bin;;C:\Users\Administrator\AppData\Local\GitHubDesktop\bin;D:\Depend\Go\bin;;D:\AIoT\eclipse;;."/>
    <property name="java.specification.name" value="Java Platform API Specification"/>
    <property name="java.class.version" value="52.0"/>
    <property name="sun.management.compiler" value="HotSpot 64-Bit Tiered Compilers"/>
    <property name="os.version" value="10.0"/>
    <property name="user.home" value="C:\Users\Administrator"/>
    <property name="user.timezone" value="Asia/Shanghai"/>
    <property name="java.awt.printerjob" value="sun.awt.windows.WPrinterJob"/>
    <property name="java.specification.version" value="1.8"/>
    <property name="file.encoding" value="GBK"/>
    <property name="user.name" value="Administrator"/>
    <property name="java.class.path" value="D:\AIoT\eclipse\plugins\org.eclipse.m2e.maven.runtime_1.16.0.20200610-1735\jars\plexus-classworlds-2.6.0.jar"/>
    <property name="java.vm.specification.version" value="1.8"/>
    <property name="sun.arch.data.model" value="64"/>
    <property name="java.home" value="D:\Depend\Java\jdk\jre"/>
    <property name="sun.java.command" value="org.codehaus.plexus.classworlds.launcher.Launcher -B --threads 4 clean install"/>
    <property name="java.specification.vendor" value="Oracle Corporation"/>
    <property name="user.language" value="zh"/>
    <property name="eclipse.p2.atomic.composite.loading.default" value="true"/>
    <property name="awt.toolkit" value="sun.awt.windows.WToolkit"/>
    <property name="java.vm.info" value="mixed mode"/>
    <property name="java.version" value="1.8.0_271"/>
    <property name="java.ext.dirs" value="D:\Depend\Java\jdk\jre\lib\ext;C:\WINDOWS\Sun\Java\lib\ext"/>
    <property name="sun.boot.class.path" value="D:\Depend\Java\jdk\jre\lib\resources.jar;D:\Depend\Java\jdk\jre\lib\rt.jar;D:\Depend\Java\jdk\jre\lib\sunrsasign.jar;D:\Depend\Java\jdk\jre\lib\jsse.jar;D:\Depend\Java\jdk\jre\lib\jce.jar;D:\Depend\Java\jdk\jre\lib\charsets.jar;D:\Depend\Java\jdk\jre\lib\jfr.jar;D:\Depend\Java\jdk\jre\classes"/>
    <property name="java.vendor" value="Oracle Corporation"/>
    <property name="maven.home" value="D:\AIoT\AIoTML\AIoTML\EMBEDDED"/>
    <property name="file.separator" value="\"/>
    <property name="osgi.framework.useSystemProperties" value="false"/>
    <property name="java.vendor.url.bug" value="http://bugreport.sun.com/bugreport/"/>
    <property name="sun.cpu.endian" value="little"/>
    <property name="sun.io.unicode.encoding" value="UnicodeLittle"/>
    <property name="sun.desktop" value="windows"/>
    <property name="sun.cpu.isalist" value="amd64"/>
  </properties>
  <testcase classname="org.aiotml.compliers.tests.TestSaveThingFile" name="test" time="0.166"/>
</testsuite>